{
 "kind": "customsearch#search",
 "url": {
  "type": "application/json",
  "template": "https://www.googleapis.com/customsearch/v1?q={searchTerms}&num={count?}&start={startIndex?}&lr={language?}&safe={safe?}&cx={cx?}&cref={cref?}&sort={sort?}&filter={filter?}&gl={gl?}&cr={cr?}&googlehost={googleHost?}&c2coff={disableCnTwTranslation?}&hq={hq?}&hl={hl?}&siteSearch={siteSearch?}&siteSearchFilter={siteSearchFilter?}&exactTerms={exactTerms?}&excludeTerms={excludeTerms?}&linkSite={linkSite?}&orTerms={orTerms?}&relatedSite={relatedSite?}&dateRestrict={dateRestrict?}&lowRange={lowRange?}&highRange={highRange?}&searchType={searchType}&fileType={fileType?}&rights={rights?}&imgSize={imgSize?}&imgType={imgType?}&imgColorType={imgColorType?}&imgDominantColor={imgDominantColor?}&alt=json"
 },
 "queries": {
  "nextPage": [
   {
    "title": "Google Custom Search - boat",
    "totalResults": "5600",
    "searchTerms": "boat",
    "count": 10,
    "startIndex": 11,
    "inputEncoding": "utf8",
    "outputEncoding": "utf8",
    "safe": "off",
    "cx": "006362779814540710079:vbyugayezxk",
    "fileType": "png"
   }
  ],
  "request": [
   {
    "title": "Google Custom Search - boat",
    "totalResults": "5600",
    "searchTerms": "boat",
    "count": 10,
    "startIndex": 1,
    "inputEncoding": "utf8",
    "outputEncoding": "utf8",
    "safe": "off",
    "cx": "006362779814540710079:vbyugayezxk",
    "fileType": "png"
   }
  ]
 },
 "context": {
  "title": "MySearch"
 },
 "searchInformation": {
  "searchTime": 0.246417,
  "formattedSearchTime": "0.25",
  "totalResults": "5600",
  "formattedTotalResults": "5,600"
 },
 "items": [
  {
   "kind": "customsearch#result",
   "title": "Image - Rondini's Boat Dock location.PNG - Saints Row Wiki ...",
   "htmlTitle": "Image - Rondini&#39;s \u003cb\u003eBoat\u003c/b\u003e Dock location.PNG - Saints Row Wiki \u003cb\u003e...\u003c/b\u003e",
   "link": "http://saintsrow.wikia.com/wiki/File:Rondini's_Boat_Dock_location.PNG",
   "displayLink": "saintsrow.wikia.com",
   "snippet": "The location of Rondini's Boat Dock in Saints Row: The Third.",
   "htmlSnippet": "The location of Rondini&#39;s \u003cb\u003eBoat\u003c/b\u003e Dock in Saints Row: The Third.",
   "cacheId": "TLLVt1ScR2kJ",
   "formattedUrl": "saintsrow.wikia.com/wiki/File:Rondini's_Boat_Dock_location.PNG",
   "htmlFormattedUrl": "saintsrow.wikia.com/wiki/File:Rondini&#39;s_\u003cb\u003eBoat\u003c/b\u003e_Dock_location.PNG",
   "pagemap": {
    "cse_image": [
     {
      "src": "http://vignette4.wikia.nocookie.net/saintsrow/images/7/75/Rondini's_Boat_Dock_location.PNG/revision/latest?cb=20111113132402"
     }
    ],
    "videoobject": [
     {
      "thumbnail": "http://vignette3.wikia.nocookie.net/video151/images/8/87/Saints_Row_Gat_out_of_Hell_%E2%80%93_Musical_Trailer/revision/latest/scale-to-width-down/267?cb=20141203162338",
      "duration": "05:12"
     },
     {
      "thumbnail": "http://vignette2.wikia.nocookie.net/video151/images/e/e2/Where_Can_Saints_Row_Go_After_Hell%3F_%E2%80%93_Podcast_Unlocked/revision/latest/scale-to-width-down/267?cb=20140909182305",
      "duration": "09:17"
     }
    ],
    "cse_thumbnail": [
     {
      "width": "275",
      "height": "183",
      "src": "https://encrypted-tbn2.gstatic.com/images?q=tbn:ANd9GcRy65sS5-OVvnXYF9pFFvxs_jW0IyLQ-5aVJNQu6JAiZ51jlTnuCvC0ssQ"
     }
    ],
    "metatags": [
     {
      "viewport": "width=device-width, initial-scale=1.0, user-scalable=yes",
      "fb:app_id": "112328095453510",
      "og:type": "article",
      "og:site_name": "Saints Row Wiki",
      "og:title": "Rondini's Boat Dock location.PNG",
      "og:description": "The location of Rondini's Boat Dock in Saints Row: The Third.",
      "og:url": "http://saintsrow.wikia.com/wiki/File:Rondini%27s_Boat_Dock_location.PNG",
      "og:image": "http://img2.wikia.nocookie.net/__cb20111113132402/saintsrow/images/7/75/Rondini%27s_Boat_Dock_location.PNG",
      "apple-itunes-app": "app-id=623705389"
     }
    ]
   }
  },
  {
   "kind": "customsearch#result",
   "title": "Image - S6e27 Baby Finn on boat with bear.png - The Adventure ...",
   "htmlTitle": "Image - S6e27 Baby Finn on \u003cb\u003eboat\u003c/b\u003e with bear.png - The Adventure \u003cb\u003e...\u003c/b\u003e",
   "link": "http://adventuretime.wikia.com/wiki/File:S6e27_Baby_Finn_on_boat_with_bear.png",
   "displayLink": "adventuretime.wikia.com",
   "snippet": "File:S6e27 Baby Finn on boat with bear.png. Size of this preview: 640 × 360 \npixels. Other resolutions: 320 × 180 pixels | 800 × 450 pixels | 1,024 × 576 pixels\n ...",
   "htmlSnippet": "File:S6e27 Baby Finn on \u003cb\u003eboat\u003c/b\u003e with bear.png. Size of this preview: 640 × 360 \u003cbr\u003e\npixels. Other resolutions: 320 × 180 pixels | 800 × 450 pixels | 1,024 × 576 pixels\u003cbr\u003e\n&nbsp;...",
   "cacheId": "I7jXEBL2_GwJ",
   "formattedUrl": "adventuretime.wikia.com/.../File:S6e27_Baby_Finn_on_boat_with_bear.png",
   "htmlFormattedUrl": "adventuretime.wikia.com/.../File:S6e27_Baby_Finn_on_\u003cb\u003eboat\u003c/b\u003e_with_bear.png",
   "pagemap": {
    "cse_image": [
     {
      "src": "http://img2.wikia.nocookie.net/__cb20150214181327/adventuretimewithfinnandjake/images/7/72/S6e27_Baby_Finn_on_boat_with_bear.png"
     }
    ],
    "videoobject": [
     {
      "thumbnail": "http://vignette3.wikia.nocookie.net/video151/images/a/a5/C2E2_2015_Sizzle_Reel/revision/latest/scale-to-width-down/267?cb=20150512161524",
      "duration": "01:36"
     }
    ],
    "cse_thumbnail": [
     {
      "width": "300",
      "height": "168",
      "src": "https://encrypted-tbn2.gstatic.com/images?q=tbn:ANd9GcT2ok0Mdymf1LvBtH8sdeByK4RvVntuf6YJTEYjNtJhIyL97bGtC-0gUgXG"
     }
    ],
    "metatags": [
     {
      "viewport": "width=device-width, initial-scale=1.0, user-scalable=yes",
      "fb:app_id": "112328095453510",
      "og:type": "article",
      "og:site_name": "Adventure Time Wiki",
      "og:title": "S6e27 Baby Finn on boat with bear.png",
      "og:url": "http://adventuretime.wikia.com/wiki/File:S6e27_Baby_Finn_on_boat_with_bear.png",
      "og:image": "http://img2.wikia.nocookie.net/__cb20150214181327/adventuretimewithfinnandjake/images/7/72/S6e27_Baby_Finn_on_boat_with_bear.png",
      "apple-itunes-app": "app-id=623705389"
     }
    ]
   }
  },
  {
   "kind": "customsearch#result",
   "title": "Image - Rondini's Boat Dock buying.PNG - Saints Row Wiki ...",
   "htmlTitle": "Image - Rondini&#39;s \u003cb\u003eBoat\u003c/b\u003e Dock buying.PNG - Saints Row Wiki \u003cb\u003e...\u003c/b\u003e",
   "link": "http://saintsrow.wikia.com/wiki/File:Rondini's_Boat_Dock_buying.PNG",
   "displayLink": "saintsrow.wikia.com",
   "snippet": "Buying Rondini's Boat Dock in Saints Row: The Third.",
   "htmlSnippet": "Buying Rondini&#39;s \u003cb\u003eBoat\u003c/b\u003e Dock in Saints Row: The Third.",
   "cacheId": "ay5ioemvT0oJ",
   "formattedUrl": "saintsrow.wikia.com/wiki/File:Rondini's_Boat_Dock_buying.PNG",
   "htmlFormattedUrl": "saintsrow.wikia.com/wiki/File:Rondini&#39;s_\u003cb\u003eBoat\u003c/b\u003e_Dock_buying.PNG",
   "pagemap": {
    "cse_image": [
     {
      "src": "http://vignette3.wikia.nocookie.net/saintsrow/images/f/f6/Rondini's_Boat_Dock_buying.PNG/revision/latest?cb=20111113132654"
     }
    ],
    "videoobject": [
     {
      "thumbnail": "http://vignette3.wikia.nocookie.net/video151/images/3/34/Jurassic_World_(Trailer_1)/revision/latest/scale-to-width-down/268?cb=20150420202343",
      "duration": "02:32"
     },
     {
      "thumbnail": "http://vignette2.wikia.nocookie.net/video151/images/e/e2/Where_Can_Saints_Row_Go_After_Hell%3F_%E2%80%93_Podcast_Unlocked/revision/latest/scale-to-width-down/267?cb=20140909182305",
      "duration": "09:17"
     }
    ],
    "cse_thumbnail": [
     {
      "width": "304",
      "height": "166",
      "src": "https://encrypted-tbn1.gstatic.com/images?q=tbn:ANd9GcRWjc-xuhYwWb-NYZU-8BqVjHdAzkSgt_R0eta-hPEzJ-hTGJF92ivsnUmn"
     }
    ],
    "metatags": [
     {
      "viewport": "width=device-width, initial-scale=1.0, user-scalable=yes",
      "fb:app_id": "112328095453510",
      "og:type": "article",
      "og:site_name": "Saints Row Wiki",
      "og:title": "Rondini's Boat Dock buying.PNG",
      "og:description": "Buying Rondini's Boat Dock in Saints Row: The Third.",
      "og:url": "http://saintsrow.wikia.com/wiki/File:Rondini%27s_Boat_Dock_buying.PNG",
      "og:image": "http://img3.wikia.nocookie.net/__cb20111113132654/saintsrow/images/thumb/f/f6/Rondini%27s_Boat_Dock_buying.PNG/500px-Rondini%27s_Boat_Dock_buying.PNG",
      "apple-itunes-app": "app-id=623705389"
     }
    ]
   }
  },
  {
   "kind": "customsearch#result",
   "title": "Image - BF4 Boat Camo.png - Battlefield Wiki - Battlefield 4 ...",
   "htmlTitle": "Image - BF4 \u003cb\u003eBoat\u003c/b\u003e Camo.png - Battlefield Wiki - Battlefield 4 \u003cb\u003e...\u003c/b\u003e",
   "link": "http://battlefield.wikia.com/wiki/File:BF4_Boat_Camo.png",
   "displayLink": "battlefield.wikia.com",
   "snippet": "File:BF4 Boat Camo.png. No higher resolution available. BF4_Boat_Camo.png   (\n594 × 344 pixels, file size: 276 KB, MIME type: image/png). About; File History ...",
   "htmlSnippet": "File:BF4 \u003cb\u003eBoat\u003c/b\u003e Camo.png. No higher resolution available. BF4_Boat_Camo.png   (\u003cbr\u003e\n594 × 344 pixels, file size: 276 KB, MIME type: image/png). About; File History&nbsp;...",
   "cacheId": "06u7IusvrbEJ",
   "formattedUrl": "battlefield.wikia.com/wiki/File:BF4_Boat_Camo.png",
   "htmlFormattedUrl": "battlefield.wikia.com/wiki/File:BF4_\u003cb\u003eBoat\u003c/b\u003e_Camo.png",
   "pagemap": {
    "cse_image": [
     {
      "src": "http://img1.wikia.nocookie.net/__cb20130617034015/battlefield/images/thumb/d/de/BF4_Boat_Camo.png/500px-BF4_Boat_Camo.png"
     }
    ],
    "videoobject": [
     {
      "thumbnail": "http://vignette1.wikia.nocookie.net/video151/images/f/fe/Battlefield_Bad_Company_Video_-_Battlefield_Bad_Company_Finding_Gold/revision/latest/scale-to-width-down/268?cb=20121013092810",
      "duration": "01:48"
     }
    ],
    "cse_thumbnail": [
     {
      "width": "295",
      "height": "171",
      "src": "https://encrypted-tbn0.gstatic.com/images?q=tbn:ANd9GcRC_ogkS90j-E8tYBePb0JNzw6DRLdpB879CmZhqcxeHVB84k9_RMqNWjQU"
     }
    ],
    "metatags": [
     {
      "viewport": "width=device-width, initial-scale=1.0, user-scalable=yes",
      "fb:app_id": "112328095453510",
      "og:type": "article",
      "og:site_name": "Battlefield Wiki",
      "og:title": "BF4 Boat Camo.png",
      "og:description": "Licensing COPYRIGHT NOTICE: PUBLIC DOMAIN This file is in the Public Domain It needs retagging with either {{PD1|Reason why PD|Source}} or {{PD/US Federal Government|Source}}",
      "og:url": "http://battlefield.wikia.com/wiki/File:BF4_Boat_Camo.png",
      "og:image": "http://img1.wikia.nocookie.net/__cb20130617034015/battlefield/images/thumb/d/de/BF4_Boat_Camo.png/500px-BF4_Boat_Camo.png",
      "apple-itunes-app": "app-id=623705389"
     }
    ]
   }
  },
  {
   "kind": "customsearch#result",
   "title": "Image - Boat screenshot.png - Pixar Wiki - Disney Pixar Animation ...",
   "htmlTitle": "Image - \u003cb\u003eBoat\u003c/b\u003e screenshot.png - Pixar Wiki - Disney Pixar Animation \u003cb\u003e...\u003c/b\u003e",
   "link": "http://pixar.wikia.com/wiki/File:Boat_screenshot.png",
   "displayLink": "pixar.wikia.com",
   "snippet": "File:Boat screenshot.png. Size of this preview: 640 × 267 pixels. Other resolution: \n320 × 134 pixels. Full resolution   (1,366 × 570 pixels, file size: 295 KB, MIME ...",
   "htmlSnippet": "File:\u003cb\u003eBoat\u003c/b\u003e screenshot.png. Size of this preview: 640 × 267 pixels. Other resolution: \u003cbr\u003e\n320 × 134 pixels. Full resolution   (1,366 × 570 pixels, file size: 295 KB, MIME&nbsp;...",
   "cacheId": "LzE7pm0qK-wJ",
   "formattedUrl": "pixar.wikia.com/wiki/File:Boat_screenshot.png",
   "htmlFormattedUrl": "pixar.wikia.com/wiki/File:\u003cb\u003eBoat\u003c/b\u003e_screenshot.png",
   "pagemap": {
    "cse_image": [
     {
      "src": "http://img3.wikia.nocookie.net/__cb20110509140838/pixar/images/thumb/7/72/Boat_screenshot.png/500px-Boat_screenshot.png"
     }
    ],
    "videoobject": [
     {
      "thumbnail": "http://vignette3.wikia.nocookie.net/video151/images/3/34/Jurassic_World_(Trailer_1)/revision/latest/scale-to-width-down/268?cb=20150420202343",
      "duration": "02:32"
     }
    ],
    "cse_thumbnail": [
     {
      "width": "348",
      "height": "145",
      "src": "https://encrypted-tbn2.gstatic.com/images?q=tbn:ANd9GcTmh9_FlxnPpJIKB6s1u0FuQs6aBKLsJF40dSCfIOyJBPkXUy2GKdnUwGmY"
     }
    ],
    "metatags": [
     {
      "viewport": "width=device-width, initial-scale=1.0, user-scalable=yes",
      "fb:app_id": "112328095453510",
      "og:type": "article",
      "og:site_name": "Pixar Wiki",
      "og:title": "Boat screenshot.png",
      "og:url": "http://pixar.wikia.com/wiki/File:Boat_screenshot.png",
      "og:image": "http://img3.wikia.nocookie.net/__cb20110509140838/pixar/images/thumb/7/72/Boat_screenshot.png/500px-Boat_screenshot.png",
      "apple-itunes-app": "app-id=623705389"
     }
    ]
   }
  },
  {
   "kind": "customsearch#result",
   "title": "Image - Boat dropping Wildfire.png - Game of Thrones Wiki",
   "htmlTitle": "Image - \u003cb\u003eBoat\u003c/b\u003e dropping Wildfire.png - Game of Thrones Wiki",
   "link": "http://gameofthrones.wikia.com/wiki/File:Boat_dropping_Wildfire.png",
   "displayLink": "gameofthrones.wikia.com",
   "snippet": "This image is used with the permission of HBO but on the understanding that it \ncan be removed at any time. The image shows a boat dropping Wildfire.",
   "htmlSnippet": "This image is used with the permission of HBO but on the understanding that it \u003cbr\u003e\ncan be removed at any time. The image shows a \u003cb\u003eboat\u003c/b\u003e dropping Wildfire.",
   "cacheId": "GITbLX_k5M8J",
   "formattedUrl": "gameofthrones.wikia.com/wiki/File:Boat_dropping_Wildfire.png",
   "htmlFormattedUrl": "gameofthrones.wikia.com/wiki/File:\u003cb\u003eBoat\u003c/b\u003e_dropping_Wildfire.png",
   "pagemap": {
    "cse_image": [
     {
      "src": "http://img4.wikia.nocookie.net/__cb20120528130201/gameofthrones/images/thumb/0/01/Boat_dropping_Wildfire.png/500px-Boat_dropping_Wildfire.png"
     }
    ],
    "cse_thumbnail": [
     {
      "width": "300",
      "height": "168",
      "src": "https://encrypted-tbn2.gstatic.com/images?q=tbn:ANd9GcR4Y5Hn1TifcOwJrVpyfquZHzQZNGSUzVA2tFlNyLyZVZQrDDMK8E0xcSQ9"
     }
    ],
    "metatags": [
     {
      "viewport": "width=device-width, initial-scale=1.0, user-scalable=yes",
      "fb:app_id": "112328095453510",
      "og:type": "article",
      "og:site_name": "Game of Thrones Wiki",
      "og:title": "Boat dropping Wildfire.png",
      "og:description": "This image is a screencap from \"Blackwater\". The image is copyrighted by HBO. This image is used with the permission of HBO but on the understanding that it can be removed at any time. The image shows a boat dropping Wildfire.",
      "og:url": "http://gameofthrones.wikia.com/wiki/File:Boat_dropping_Wildfire.png",
      "og:image": "http://img4.wikia.nocookie.net/__cb20120528130201/gameofthrones/images/thumb/0/01/Boat_dropping_Wildfire.png/500px-Boat_dropping_Wildfire.png",
      "apple-itunes-app": "app-id=623705389"
     }
    ]
   }
  },
  {
   "kind": "customsearch#result",
   "title": "File:Fresh Off the Boat intertitle.png - Wikipedia, the free encyclopedia",
   "htmlTitle": "File:Fresh Off the \u003cb\u003eBoat\u003c/b\u003e intertitle.png - Wikipedia, the free encyclopedia",
   "link": "https://en.wikipedia.org/wiki/File:Fresh_Off_the_Boat_intertitle.png",
   "displayLink": "en.wikipedia.org",
   "snippet": "Non-free media information and use rationale for Fresh Off the Boat. Description. \nIntertitle for Fresh Off the Boat. Source. Television screen capture. Article.",
   "htmlSnippet": "Non-free media information and use rationale for Fresh Off the \u003cb\u003eBoat\u003c/b\u003e. Description. \u003cbr\u003e\nIntertitle for Fresh Off the \u003cb\u003eBoat\u003c/b\u003e. Source. Television screen capture. Article.",
   "cacheId": "tFKR7JKl_DgJ",
   "formattedUrl": "https://en.wikipedia.org/wiki/File:Fresh_Off_the_Boat_intertitle.png",
   "htmlFormattedUrl": "https://en.wikipedia.org/wiki/File:Fresh_Off_the_\u003cb\u003eBoat\u003c/b\u003e_intertitle.png",
   "pagemap": {
    "cse_image": [
     {
      "src": "https://upload.wikimedia.org/wikipedia/en/1/11/Fresh_Off_the_Boat_intertitle.png"
     }
    ],
    "cse_thumbnail": [
     {
      "width": "299",
      "height": "169",
      "src": "https://encrypted-tbn3.gstatic.com/images?q=tbn:ANd9GcSRQD24ZKY4WzBHiVv8_DkbmzdjFAex4iBG3jSiKrXDuFkMRBXQiCr-ryqq"
     }
    ]
   }
  },
  {
   "kind": "customsearch#result",
   "title": "Image - Boat 1.png",
   "htmlTitle": "Image - \u003cb\u003eBoat\u003c/b\u003e 1.png",
   "link": "http://left4dead.wikia.com/wiki/File:Boat_1.png",
   "displayLink": "left4dead.wikia.com",
   "snippet": "File:Boat 1.png. Size of this preview: 591 × 479 pixels. Other resolutions: 296 × \n240 pixels | 592 × 480 pixels. Full resolution   (683 × 554 pixels, file size: 239 KB,\n ...",
   "htmlSnippet": "File:\u003cb\u003eBoat\u003c/b\u003e 1.png. Size of this preview: 591 × 479 pixels. Other resolutions: 296 × \u003cbr\u003e\n240 pixels | 592 × 480 pixels. Full resolution   (683 × 554 pixels, file size: 239 KB,\u003cbr\u003e\n&nbsp;...",
   "cacheId": "2PIObZdTf3QJ",
   "formattedUrl": "left4dead.wikia.com/wiki/File:Boat_1.png",
   "htmlFormattedUrl": "left4dead.wikia.com/wiki/File:\u003cb\u003eBoat\u003c/b\u003e_1.png",
   "pagemap": {
    "cse_image": [
     {
      "src": "http://img2.wikia.nocookie.net/__cb20090721222851/left4dead/images/thumb/0/06/Boat_1.png/500px-Boat_1.png"
     }
    ],
    "cse_thumbnail": [
     {
      "width": "249",
      "height": "202",
      "src": "https://encrypted-tbn1.gstatic.com/images?q=tbn:ANd9GcQ5OgyW3jlt4TnK9_d5J9B-4BcnOnn0CWjVc2ijgt3HbLpTx69bENtQOTw"
     }
    ],
    "metatags": [
     {
      "viewport": "width=device-width, initial-scale=1.0, user-scalable=yes",
      "fb:app_id": "112328095453510",
      "og:type": "article",
      "og:site_name": "Left 4 Dead Wiki",
      "og:title": "Boat 1.png",
      "og:description": "Licensing: This file is copyrighted. It will be used in a way that qualifies as fair use under US copyright law.",
      "og:url": "http://left4dead.wikia.com/wiki/File:Boat_1.png",
      "og:image": "http://img2.wikia.nocookie.net/__cb20090721222851/left4dead/images/thumb/0/06/Boat_1.png/500px-Boat_1.png",
      "apple-itunes-app": "app-id=623705389"
     }
    ]
   }
  },
  {
   "kind": "customsearch#result",
   "title": "Image - Squalo-front-boat-gtav.png - GTA Wiki, the Grand Theft Auto ...",
   "htmlTitle": "Image - Squalo-front-\u003cb\u003eboat\u003c/b\u003e-gtav.png - GTA Wiki, the Grand Theft Auto \u003cb\u003e...\u003c/b\u003e",
   "link": "http://gta.wikia.com/wiki/File:Squalo-front-boat-gtav.png",
   "displayLink": "gta.wikia.com",
   "snippet": "Squalo-front-boat-gtav.png   (640 × 360 pixels, file size: 456 KB, MIME type: ... \nSqualo (spelt Squallo in Grand Theft Auto: Vice City Stories) is a go-fast boat in.",
   "htmlSnippet": "Squalo-front-\u003cb\u003eboat\u003c/b\u003e-gtav.png   (640 × 360 pixels, file size: 456 KB, MIME type: ... \u003cbr\u003e\nSqualo (spelt Squallo in Grand Theft Auto: Vice City Stories) is a go-fast \u003cb\u003eboat\u003c/b\u003e in.",
   "cacheId": "J9awEAla27wJ",
   "formattedUrl": "gta.wikia.com/wiki/File:Squalo-front-boat-gtav.png",
   "htmlFormattedUrl": "gta.wikia.com/wiki/File:Squalo-front-\u003cb\u003eboat\u003c/b\u003e-gtav.png",
   "pagemap": {
    "cse_image": [
     {
      "src": "http://img2.wikia.nocookie.net/__cb20140527154833/gtawiki/images/thumb/f/f9/Squalo-front-boat-gtav.png/500px-Squalo-front-boat-gtav.png"
     }
    ],
    "videoobject": [
     {
      "thumbnail": "http://vignette3.wikia.nocookie.net/video151/images/6/63/'Remastered'_GTA_San_Andreas_Coming_to_Mobile/revision/latest/scale-to-width-down/267?cb=20131127002336",
      "duration": "00:53"
     },
     {
      "thumbnail": "http://vignette3.wikia.nocookie.net/video151/images/1/1d/The_Finer_Points_of_GTA_V/revision/latest/scale-to-width-down/267?cb=20131001204711",
      "duration": "04:59"
     }
    ],
    "cse_thumbnail": [
     {
      "width": "300",
      "height": "168",
      "src": "https://encrypted-tbn2.gstatic.com/images?q=tbn:ANd9GcRt9YCAcspjBfKSMhEA5dQ1E68k7WsimIr9azOCE_y7Sh_UOwYmjesKBus"
     }
    ],
    "metatags": [
     {
      "viewport": "width=device-width, initial-scale=1.0, user-scalable=yes",
      "fb:app_id": "112328095453510",
      "og:type": "article",
      "og:site_name": "GTA Wiki",
      "og:title": "Squalo-front-boat-gtav.png",
      "og:description": "Licensing This file is hereby released into the public domain by its author, {{{1}}}. This applies worldwide. In case this is not legally possible: {{{1}}} grants anyone the right to use this work for any purpose, without any conditions, unless such conditions are required by law.",
      "og:url": "http://gta.wikia.com/wiki/File:Squalo-front-boat-gtav.png",
      "og:image": "http://img2.wikia.nocookie.net/__cb20140527154833/gtawiki/images/thumb/f/f9/Squalo-front-boat-gtav.png/500px-Squalo-front-boat-gtav.png",
      "apple-itunes-app": "app-id=623705389"
     }
    ]
   }
  },
  {
   "kind": "customsearch#result",
   "title": "Image - Seamus in a boat.PNG - Harry Potter Wiki",
   "htmlTitle": "Image - Seamus in a \u003cb\u003eboat\u003c/b\u003e.PNG - Harry Potter Wiki",
   "link": "http://harrypotter.wikia.com/wiki/File:Seamus_in_a_boat.PNG",
   "displayLink": "harrypotter.wikia.com",
   "snippet": "File:Seamus in a boat.PNG. No higher resolution available. Seamus_in_a_boat.\nPNG   (535 × 359 pixels, file size: 105 KB, MIME type: image/png). About; File ...",
   "htmlSnippet": "File:Seamus in a \u003cb\u003eboat\u003c/b\u003e.PNG. No higher resolution available. Seamus_in_a_boat.\u003cbr\u003e\nPNG   (535 × 359 pixels, file size: 105 KB, MIME type: image/png). About; File&nbsp;...",
   "cacheId": "jgBcCd9R05EJ",
   "formattedUrl": "harrypotter.wikia.com/wiki/File:Seamus_in_a_boat.PNG",
   "htmlFormattedUrl": "harrypotter.wikia.com/wiki/File:Seamus_in_a_\u003cb\u003eboat\u003c/b\u003e.PNG",
   "pagemap": {
    "cse_image": [
     {
      "src": "http://img1.wikia.nocookie.net/__cb20100317152348/harrypotter/images/2/25/Seamus_in_a_boat.PNG"
     }
    ],
    "videoobject": [
     {
      "thumbnail": "http://vignette2.wikia.nocookie.net/video151/images/c/c1/Harry_Potter_-_Fantastic_Beasts_Beastiary/revision/latest/scale-to-width-down/267?cb=20140617170444",
      "duration": "02:52"
     }
    ],
    "cse_thumbnail": [
     {
      "width": "274",
      "height": "184",
      "src": "https://encrypted-tbn1.gstatic.com/images?q=tbn:ANd9GcRGkn7e7akTIJyIDfk6t6argr-QbdzA2w76qGd_rSMV8pkPdxm4WMWakak"
     }
    ],
    "metatags": [
     {
      "viewport": "width=device-width, initial-scale=1.0, user-scalable=yes",
      "fb:app_id": "112328095453510",
      "og:type": "article",
      "og:site_name": "Harry Potter Wiki",
      "og:title": "Seamus in a boat.PNG",
      "og:description": "Licensing: This is a screenshot of a copyrighted website, video game graphic, computer program graphic, television broadcast, or film. It is believed that screenshots may be exhibited on Harry Potter Wiki under the fair use provision of United States copyright law. See Copyrights.",
      "og:url": "http://harrypotter.wikia.com/wiki/File:Seamus_in_a_boat.PNG",
      "og:image": "http://img1.wikia.nocookie.net/__cb20100317152348/harrypotter/images/2/25/Seamus_in_a_boat.PNG",
      "apple-itunes-app": "app-id=623705389"
     }
    ]
   }
  }
 ]
}